<svg xmlns="http://www.w3.org/2000/svg" width="42" height="42" viewBox="0 0 42 42">
  <metadata><?xpacket begin="﻿" id="W5M0MpCehiHzreSzNTczkc9d"?>
<x:xmpmeta xmlns:x="adobe:ns:meta/" x:xmptk="Adobe XMP Core 5.6-c138 79.159824, 2016/09/14-01:09:01        ">
   <rdf:RDF xmlns:rdf="http://www.w3.org/1999/02/22-rdf-syntax-ns#">
      <rdf:Description rdf:about=""/>
   </rdf:RDF>
</x:xmpmeta>
                                                                                                    
                                                                                                    
                                                                                                    
                                                                                                    
                                                                                                    
                                                                                                    
                                                                                                    
                                                                                                    
                                                                                                    
                                                                                                    
                                                                                                    
                                                                                                    
                                                                                                    
                                                                                                    
                                                                                                    
                                                                                                    
                                                                                                    
                                                                                                    
                                                                                                    
                                                                                                    
                           
<?xpacket end="w"?></metadata>
<defs>
    <style>
      .cls-1 {
        fill: #3e3e3e;
        fill-rule: evenodd;
      }
    </style>
  </defs>
  <path id="Contact_icon" data-name="Contact icon" class="cls-1" d="M787.226,1145.23h-5.578v-5.62a3.7,3.7,0,0,0-3.773-3.61h-25.1a3.7,3.7,0,0,0-3.773,3.61v25.23a3.943,3.943,0,0,0,6.706,2.8l2.81-2.72a3.743,3.743,0,0,0,3.609,2.62h11.19a3.263,3.263,0,0,1,2.336.98l8.626,8.33a3.944,3.944,0,0,0,6.723-2.79v-25.23A3.691,3.691,0,0,0,787.226,1145.23Zm-33.359,20.53a1.335,1.335,0,0,1-1.855,0,1.272,1.272,0,0,1-.387-0.92v-25.23a1.083,1.083,0,0,1,1.148-.99h25.1a1.083,1.083,0,0,1,1.148.99v15.09a1.076,1.076,0,0,1-1.148.99h-11.19a5.848,5.848,0,0,0-4.159,1.71Zm34.508,8.3a1.312,1.312,0,0,1-2.258.91l-8.627-8.33a5.889,5.889,0,0,0-4.175-1.73h-11.19a1.076,1.076,0,0,1-1.148-.98v-1.38l3.388-3.28a3.262,3.262,0,0,1,2.32-.96h11.19a3.7,3.7,0,0,0,3.773-3.61v-6.85h5.578a1.076,1.076,0,0,1,1.149.98v25.23Zm-22.969-22.31a1.97,1.97,0,1,0-1.969-1.97A1.969,1.969,0,0,0,765.406,1151.75Zm-7.875-3.94a1.97,1.97,0,1,0,1.969,1.97A1.969,1.969,0,0,0,757.531,1147.81Zm15.75,3.94a1.97,1.97,0,1,0-1.969-1.97A1.969,1.969,0,0,0,773.281,1151.75Z" transform="translate(-749 -1136)"/>
</svg>
